0.023	0.796	-0.02
0.331	0.796	-0.02
0.456	0.808	-0.02
0.674	0.747	-0.02
0.813	0.749	-0.02
1.103	0.73	-0.02
1.254	0.722	-0.02
1.377	0.712	-0.02
1.535	0.706	-0.02
1.846	0.746	-0.02
1.996	0.771	-0.02
0.034	0.654	-0.02
0.169	0.633	-0.02
0.313	0.631	-0.02
0.462	0.626	-0.02
0.676	0.632	-0.02
0.816	0.632	-0.02
0.961	0.634	-0.02
1.11	0.649	-0.02
1.263	0.649	-0.02
1.388	0.649	-0.02
1.53	0.637	-0.02
1.678	0.631	-0.02
1.837	0.634	-0.02
1.989	0.638	-0.02
0.023	0.502	-0.02
0.16	0.508	-0.02
0.313	0.514	-0.02
0.464	0.524	-0.02
0.663	0.51	-0.02
0.81	0.507	-0.02
1.00	0.501	-0.02
1.111	0.492	-0.02
1.371	0.499	-0.02
1.529	0.502	-0.02
1.68	0.503	-0.02
1.828	0.519	-0.02
1.981	0.524	-0.02
0.015	0.351	-0.02
0.165	0.351	-0.02
0.324	0.355	-0.02
0.643	0.328	-0.02
0.792	0.328	-0.02
0.934	0.312	-0.02
1.087	0.314	-0.02
1.241	0.307	-0.02
1.373	0.316	-0.02
1.52	0.316	-0.02
1.673	0.321	-0.02
1.822	0.319	-0.02
1.975	0.313	-0.02
0.028	0.205	-0.02
0.184	0.203	-0.02
0.331	0.198	-0.02
0.486	0.204	-0.02
0.642	0.191	-0.02
0.793	0.189	-0.02
0.931	0.169	-0.02
1.097	0.18	-0.02
1.25	0.163	-0.02
1.387	0.173	-0.02
1.529	0.169	-0.02
1.681	0.179	-0.02
1.836	0.185	-0.02
1.993	0.183	-0.02
0.171	0.008	-0.02
0.327	0.019	-0.02
0.477	0.012	-0.02
0.635	0.001	-0.02
0.788	0.002	-0.02
1.085	0.004	-0.02
1.249	0.003	-0.02
1.38	0.017	-0.02
1.54	0.001	-0.02
1.696	0.012	-0.02
1.98	0.00	-0.02
